"
{\"count\":112,\"next\":\"http://dss.aristotlecloud.io/api/v4/metadata/dataelement?page=2\",\"previous\":null,\"results\":[
{\"id\":191,\"created\":\"2018-08-10T14:07:55.681528+10:00\",\"modified\":\"2020-11-24T20:13:45.831280+11:00\",\"uuid\":\"3fc5b4ec-9c50-11e8-92a9-0273a7ea5052\",\"name\":\"Recipient\226\128\148carer allowance entitlement indicator, yes/missing code A\",\"definition\":\"<p>An indicator of whether a recipient is&nbsp;entitled to Carer allowance,&nbsp;as represented by a code.</p>\",\"stewardship_organisation\":\"e4414942db3711e995fe62bb09eaf366\",\"workgroup\":6,\"version\":\"\",\"references\":\"\",\"origin_URI\":\"http://meteor.aihw.gov.au/content/index.phtml/itemId/645540\",\"origin\":\"\",\"comments\":\"\",\"dataElementConcept\":\"3fb95a8a-9c50-11e8-92a9-0273a7ea5052\",\"valueDomain\":\"3fb52834-9c50-11e8-92a9-0273a7ea5052\",\"metadatareferencelink_set\":[],\"slots\":[
{\"id\":46,\"name\":\"Short name\",\"value\":\"Carer allowance entitlement indicator\",\"order\":0,\"permission\":0}
],\"customvalue_set\":[
{\"id\":165,\"name\":\"Submitting Organisation\",\"field\":3,\"content\":\"<p>Australian Government Department of Social Services</p>\"}
],\"org_records\":[],\"identifiers\":[
{\"id\":\"007c7136-731d-11ea-826c-6660846ba4fa\",\"namespace\":2,\"identifier\":\"645540\",\"version\":\"1\",\"order\":0}
]}
,
{\"id\":193,\"created\":\"2018-08-10T14:07:59.512819+10:00\",\"modified\":\"2021-04-15T17:53:46.224321+10:00\",\"uuid\":\"3fc64b0a-9c50-11e8-92a9-0273a7ea5052\",\"name\":\"Recipient\226\128\148family tax benefit child, total number N[N]\",\"definition\":\"<p>The total number of children for which a recipient receives a Family Tax Benefit (Part A or B) payment.</p>\",\"stewardship_organisation\":\"e4414942db3711e995fe62bb09eaf366\",\"workgroup\":6,\"version\":\"\",\"references\":\"\",\"origin_URI\":\"http://meteor.aihw.gov.au/content/index.phtml/itemId/646981\",\"origin\":\"\",\"comments\":\"\",\"dataElementConcept\":\"3fbbe2a0-9c50-11e8-92a9-0273a7ea5052\",\"valueDomain\":\"3fae6922-9c50-11e8-92a9-0273a7ea5052\",\"metadatareferencelink_set\":[],\"slots\":[
{\"id\":48,\"name\":\"Short name\",\"value\":\"Number of Family Tax Benefit children\",\"order\":0,\"permission\":0}
],\"customvalue_set\":[
{\"id\":167,\"name\":\"Submitting Organisation\",\"field\":3,\"content\":\"<p>&nbsp;Australian Government Department of Social Services</p>\"}
],\"org_records\":[],\"identifiers\":[
{\"id\":\"007d0cd6-731d-11ea-826c-6660846ba4fa\",\"namespace\":2,\"identifier\":\"646981\",\"version\":\"1\",\"order\":0}
]}
,
{\"id\":214,\"created\":\"2018-08-10T14:08:40.448506+10:00\",\"modified\":\"2021-04-15T17:53:46.629594+10:00\",\"uuid\":\"3fcc5374-9c50-11e8-92a9-0273a7ea5052\",\"name\":\"Recipient\226\128\148continuous earning source, total number N[N]\",\"definition\":\"<p>The total number of sources of income a recipient receives on a regular basis.</p>\",\"stewardship_organisation\":\"e4414942db3711e995fe62bb09eaf366\",\"workgroup\":6,\"version\":\"\",\"references\":\"\",\"origin_URI\":\"http://meteor.aihw.gov.au/content/index.phtml/itemId/647669\",\"origin\":\"\",\"comments\":\"\",\"dataElementConcept\":\"3fbaddba-9c50-11e8-92a9-0273a7ea5052\",\"valueDomain\":\"3fae6922-9c50-11e8-92a9-0273a7ea5052\",\"metadatareferencelink_set\":[],\"slots\":[
{\"id\":78,\"name\":\"Short name\",\"value\":\"Number of continuous earning sources\",\"order\":0,\"permission\":0}
],\"customvalue_set\":[
{\"id\":151,\"name\":\"Submitting Organisation\",\"field\":3,\"content\":\"<p>Australian Government Department of Social Services</p>\"}
],\"org_records\":[],\"identifiers\":[
{\"id\":\"008526be-731d-11ea-826c-6660846ba4fa\",\"namespace\":2,\"identifier\":\"647669\",\"version\":\"1\",\"order\":0}
]}
,
{\"id\":194,\"created\":\"2018-08-10T14:08:01.353669+10:00\",\"modified\":\"2020-11-24T20:13:45.876768+11:00\",\"uuid\":\"3fc69894-9c50-11e8-92a9-0273a7ea5052\",\"name\":\"Recipient\226\128\148regular care child, total number N[N]\",\"definition\":\"<p>The total number of children for which a recipient has regular care.</p>\",\"stewardship_organisation\":\"e4414942db3711e995fe62bb09eaf366\",\"workgroup\":6,\"version\":\"\",\"references\":\"\",\"origin_URI\":\"http://meteor.aihw.gov.au/content/index.phtml/itemId/646987\",\"origin\":\"\",\"comments\":\"\",\"dataElementConcept\":\"3fbb296e-9c50-11e8-92a9-0273a7ea5052\",\"valueDomain\":\"3fae6922-9c50-11e8-92a9-0273a7ea5052\",\"metadatareferencelink_set\":[],\"slots\":[
{\"id\":49,\"name\":\"Short name\",\"value\":\"Number of Regular Care Children\",\"order\":0,\"permission\":0}
],\"customvalue_set\":[
{\"id\":170,\"name\":\"Submitting Organisation\",\"field\":3,\"content\":\"<p>&nbsp;Australian Government Department of Social Services</p>\"}
],\"org_records\":[],\"identifiers\":[
{\"id\":\"007d53f8-731d-11ea-826c-6660846ba4fa\",\"namespace\":2,\"identifier\":\"646987\",\"version\":\"1\",\"order\":0}
]}
,
{\"id\":182,\"created\":\"2018-08-10T14:07:40.149145+10:00\",\"modified\":\"2020-11-24T20:13:46.496485+11:00\",\"uuid\":\"3fc327b8-9c50-11e8-92a9-0273a7ea5052\",\"name\":\"PIA_Person\226\128\148sex/gender, code A\",\"definition\":\"<p>The identification of a person as either male, female or not exclusively male or female, as represented by a code.</p>\",\"stewardship_organisation\":\"e4414942db3711e995fe62bb09eaf366\",\"workgroup\":6,\"version\":\"\",\"references\":\"\",\"origin_URI\":\"http://meteor.aihw.gov.au/content/index.phtml/itemId/639275\",\"origin\":\"\",\"comments\":\"\",\"dataElementConcept\":\"3fbe682c-9c50-11e8-92a9-0273a7ea5052\",\"valueDomain\":\"3fb5cb4a-9c50-11e8-92a9-0273a7ea5052\",\"metadatareferencelink_set\":[],\"slots\":[
{\"id\":31,\"name\":\"Short name\",\"value\":\"Sex/gender\",\"order\":0,\"permission\":0}
],\"customvalue_set\":[
{\"id\":439,\"name\":\"Submitting Organisation\",\"field\":3,\"content\":\"<p>Australian Government Department of Social Services</p>\"}
],\"org_records\":[],\"identifiers\":[
{\"id\":\"0078ee94-731d-11ea-826c-6660846ba4fa\",\"namespace\":2,\"identifier\":\"639275\",\"version\":\"1\",\"order\":0}
]}
,
{\"id\":236,\"created\":\"2018-08-10T14:09:17.239919+10:00\",\"modified\":\"2021-04-15T17:53:49.626541+10:00\",\"uuid\":\"3fd2bb9c-9c50-11e8-92a9-0273a7ea5052\",\"name\":\"PIA_Recipient\226\128\148permanency of fifth medical condition, code A\",\"definition\":\"<p>The permanency of a recipient&#39;s&nbsp;fifth medical condition, as represented by a code.</p>\",\"stewardship_organisation\":\"e4414942db3711e995fe62bb09eaf366\",\"workgroup\":6,\"version\":\"\",\"references\":\"\",\"origin_URI\":\"http://meteor.aihw.gov.au/content/index.phtml/itemId/674403\",\"origin\":\"\",\"comments\":\"\",\"dataElementConcept\":\"3fbf9cba-9c50-11e8-92a9-0273a7ea5052\",\"valueDomain\":\"3fb1ff38-9c50-11e8-92a9-0273a7ea5052\",\"metadatareferencelink_set\":[],\"slots\":[
{\"id\":111,\"name\":\"Guide For Use\",\"value\":\"<p>Recipients&nbsp;can have up to 5 medical conditions. This information is mainly collected for Disability Support Pension&nbsp;recipients.</p>\",\"order\":0,\"permission\":0}
,
{\"id\":112,\"name\":\"Short name\",\"value\":\"Permanency of fifth medical condition\",\"order\":0,\"permission\":0}
],\"customvalue_set\":[
{\"id\":520,\"name\":\"Submitting Organisation\",\"field\":3,\"content\":\"<p>Australian Government Department of Social Services</p>\"}
],\"org_records\":[],\"identifiers\":[
{\"id\":\"008e309c-731d-11ea-826c-6660846ba4fa\",\"namespace\":2,\"identifier\":\"674403\",\"version\":\"1\",\"order\":0}
]}
,
{\"id\":212,\"created\":\"2018-08-10T14:08:37.484466+10:00\",\"modified\":\"2020-11-24T20:13:45.972977+11:00\",\"uuid\":\"3fcbbedc-9c50-11e8-92a9-0273a7ea5052\",\"name\":\"Recipient\226\128\148type of work capacity assessment, employment services/job capacity assessment code AAA\",\"definition\":\"<p>The type of work capacity assessment undertaken by a recipient,&nbsp;as represented by a code.</p>\",\"stewardship_organisation\":\"e4414942db3711e995fe62bb09eaf366\",\"workgroup\":6,\"version\":\"\",\"references\":\"\",\"origin_URI\":\"http://meteor.aihw.gov.au/content/index.phtml/itemId/647643\",\"origin\":\"\",\"comments\":\"\",\"dataElementConcept\":\"3fb8ea46-9c50-11e8-92a9-0273a7ea5052\",\"valueDomain\":\"3fb1cf54-9c50-11e8-92a9-0273a7ea5052\",\"metadatareferencelink_set\":[],\"slots\":[
{\"id\":75,\"name\":\"Guide For Use\",\"value\":\"<p>This data element should be used in conjunction with the data element:&nbsp;<a href=\\\"/content/index.phtml/itemId/653990\\\">Recipient&mdash;assessment report, date MMYYYY</a>.</p>\",\"order\":0,\"permission\":0}
,
{\"id\":76,\"name\":\"Short name\",\"value\":\"Job Capacity/Employment Services Assessment \",\"order\":0,\"permission\":0}
],\"customvalue_set\":[
{\"id\":734,\"name\":\"Submitting Organisation\",\"field\":3,\"content\":\"<p>&nbsp;Australian Government Department of Social Services</p>\"}
],\"org_records\":[],\"identifiers\":[
{\"id\":\"00844db6-731d-11ea-826c-6660846ba4fa\",\"namespace\":2,\"identifier\":\"647643\",\"version\":\"1\",\"order\":0}
]}
,
{\"id\":455,\"created\":\"2018-10-23T11:01:12.036864+11:00\",\"modified\":\"2020-11-24T19:51:29.943749+11:00\",\"uuid\":\"c0868b02-d656-11e8-b3dd-f27a1b3d116e\",\"name\":\"Client: Indigenous status, Label\",\"definition\":\"<p>The Aboriginal and/or Torres Strait Islander origin identified by a given client, represented by a label.</p>\",\"stewardship_organisation\":\"e4414942db3711e995fe62bb09eaf366\",\"workgroup\":7,\"version\":\"0.1\",\"references\":\"\",\"origin_URI\":\"\",\"origin\":\"\",\"comments\":\"\",\"dataElementConcept\":\"c046247c-d656-11e8-b3dd-f27a1b3d116e\",\"valueDomain\":\"0d04cd82-8592-11e9-992d-5643ac7a6772\",\"metadatareferencelink_set\":[],\"slots\":[
{\"id\":206,\"name\":\"Synonym\",\"value\":\"ATSI,\\r\\nATSI code,\\r\\nATSI status\",\"order\":0,\"permission\":0}
],\"customvalue_set\":[],\"org_records\":[],\"identifiers\":[]}
,
{\"id\":181,\"created\":\"2018-08-10T14:07:38.200821+10:00\",\"modified\":\"2021-04-15T17:06:44.930931+10:00\",\"uuid\":\"3fc2df42-9c50-11e8-92a9-0273a7ea5052\",\"name\":\"PIA_Recipient\226\128\148level of educational attainment, code XXX\",\"definition\":\"<p>The level of educational attainment of a recipient,&nbsp;as represented by a code.</p>\",\"stewardship_organisation\":\"e4414942db3711e995fe62bb09eaf366\",\"workgroup\":6,\"version\":\"\",\"references\":\"\",\"origin_URI\":\"http://meteor.aihw.gov.au/content/index.phtml/itemId/639258\",\"origin\":\"\",\"comments\":\"\",\"dataElementConcept\":\"3fb821b0-9c50-11e8-92a9-0273a7ea5052\",\"valueDomain\":\"3fb06114-9c50-11e8-92a9-0273a7ea5052\",\"metadatareferencelink_set\":[],\"slots\":[
{\"id\":29,\"name\":\"Guide For Use\",\"value\":\"<p>The most recent level of educational attainment is recorded.</p>\",\"order\":0,\"permission\":0}
,
{\"id\":30,\"name\":\"Short name\",\"value\":\"Level of educational attainment\",\"order\":0,\"permission\":0}
],\"customvalue_set\":[
{\"id\":436,\"name\":\"Submitting Organisation\",\"field\":3,\"content\":\"<p>Australian Government Department of Social Services</p>\"}
],\"org_records\":[],\"identifiers\":[
{\"id\":\"0078908e-731d-11ea-826c-6660846ba4fa\",\"namespace\":2,\"identifier\":\"639258\",\"version\":\"1\",\"order\":0}
]}
,
{\"id\":205,\"created\":\"2018-08-10T14:08:25.508002+10:00\",\"modified\":\"2020-11-24T19:51:18.631101+11:00\",\"uuid\":\"3fc9b74a-9c50-11e8-92a9-0273a7ea5052\",\"name\":\"Household: Rent type, Code\",\"definition\":\"<p>The type of rent paid by a recipient, as represented by a code.</p>\",\"stewardship_organisation\":\"e4414942db3711e995fe62bb09eaf366\",\"workgroup\":6,\"version\":\"0.1\",\"references\":\"\",\"origin_URI\":\"\",\"origin\":\"\",\"comments\":\"\",\"dataElementConcept\":\"3fbdabb2-9c50-11e8-92a9-0273a7ea5052\",\"valueDomain\":\"3fb2947a-9c50-11e8-92a9-0273a7ea5052\",\"metadatareferencelink_set\":[],\"slots\":[
{\"id\":65,\"name\":\"Short name\",\"value\":\"Rent type\",\"order\":0,\"permission\":0}
,
{\"id\":145,\"name\":\"Guide for use\",\"value\":\"BOA  Board and lodging\\r\\nBoard means that some regular meals are provided. Lodging means no meals are provided.\",\"order\":1,\"permission\":0}
,
{\"id\":146,\"name\":\"Conditional obligation\",\"value\":\"Conditional on the client renting.\",\"order\":2,\"permission\":0}
],\"customvalue_set\":[
{\"id\":441,\"name\":\"Submitting Organisation\",\"field\":3,\"content\":\"Australian Government Department of Social Services\"}
,
{\"id\":1002,\"name\":\"Responsible Organisation\",\"field\":4,\"content\":\"Australian Government Department of Social Services\"}
],\"org_records\":[],\"identifiers\":[
{\"id\":\"00810d36-731d-11ea-826c-6660846ba4fa\",\"namespace\":2,\"identifier\":\"647223\",\"version\":\"1\",\"order\":0}
]}
,
{\"id\":197,\"created\":\"2018-08-10T14:08:07.579427+10:00\",\"modified\":\"2021-04-15T17:06:45.924069+10:00\",\"uuid\":\"3fc779c6-9c50-11e8-92a9-0273a7ea5052\",\"name\":\"PIA_Person\226\128\148partner's Indigenous status, code A\",\"definition\":\"<p>Whether a person&#39;s partner&nbsp;identifies as being of Aboriginal or Torres Strait Islander origin, as represented by a code.</p>\",\"stewardship_organisation\":\"e4414942db3711e995fe62bb09eaf366\",\"workgroup\":6,\"version\":\"\",\"references\":\"<p>Australian Institute of Health and Welfare 2010. National best practice guidelines for collecting Indigenous status in health data sets. Cat. no. IHW 29. Canberra: AIHW. Viewed 29 September 2015, <a href=\\\"http://www.aihw.gov.au/publication-detail/?id=6442468342\\\">http://www.aihw.gov.au/publication-detail/?id=6442468342</a>.</p>\",\"origin_URI\":\"http://meteor.aihw.gov.au/content/index.phtml/itemId/647017\",\"origin\":\"\",\"comments\":\"\",\"dataElementConcept\":\"3fb9d5e6-9c50-11e8-92a9-0273a7ea5052\",\"valueDomain\":\"3faf6066-9c50-11e8-92a9-0273a7ea5052\",\"metadatareferencelink_set\":[],\"slots\":[
{\"id\":54,\"name\":\"Guide For Use\",\"value\":\"<p>This information is collected on a voluntary basis and is of unknown quality. Individuals may change their identification over time.</p>\",\"order\":0,\"permission\":0}
,
{\"id\":55,\"name\":\"Short name\",\"value\":\"Partner's Indigenous status\",\"order\":0,\"permission\":0}
],\"customvalue_set\":[
{\"id\":33,\"name\":\"Submitting Organisation\",\"field\":3,\"content\":\"<p>Australian Government Department of Social Services</p>\"}
],\"org_records\":[],\"identifiers\":[
{\"id\":\"007e3796-731d-11ea-826c-6660846ba4fa\",\"namespace\":2,\"identifier\":\"647017\",\"version\":\"1\",\"order\":0}
]}
,
{\"id\":176,\"created\":\"2018-08-10T14:07:28.927146+10:00\",\"modified\":\"2021-04-15T17:06:43.012269+10:00\",\"uuid\":\"3fc16c8e-9c50-11e8-92a9-0273a7ea5052\",\"name\":\"Recipient\226\128\148multiple birth indicator, yes/missing code A\",\"definition\":\"<div>An indicator that a recipient had a multiple birth, as represented by a code.</div>\\n\",\"stewardship_organisation\":\"e4414942db3711e995fe62bb09eaf366\",\"workgroup\":6,\"version\":\"\",\"references\":\"<p>Guide to Social Policy Law. Family Assistance Guide. Version 1.194 - Released&nbsp;8 May&nbsp;2017. 1.2.16 Multiple Birth Allowance (MBA) - Description. <a href=\\\"http://guides.dss.gov.au/family-assistance-guide/1/2/16\\\">http://guides.dss.gov.au/family-assistance-guide/1/2/16</a>.</p>\",\"origin_URI\":\"http://meteor.aihw.gov.au/content/index.phtml/itemId/633005\",\"origin\":\"\",\"comments\":\"\",\"dataElementConcept\":\"3fb9fc10-9c50-11e8-92a9-0273a7ea5052\",\"valueDomain\":\"3fb52834-9c50-11e8-92a9-0273a7ea5052\",\"metadatareferencelink_set\":[],\"slots\":[
{\"id\":23,\"name\":\"Short name\",\"value\":\"Multiple birth indicator\",\"order\":0,\"permission\":0}
],\"customvalue_set\":[
{\"id\":168,\"name\":\"Submitting Organisation\",\"field\":3,\"content\":\"<p>Australian Government Department of Social Services</p>\"}
],\"org_records\":[],\"identifiers\":[
{\"id\":\"0076b02a-731d-11ea-826c-6660846ba4fa\",\"namespace\":2,\"identifier\":\"633005\",\"version\":\"1\",\"order\":0}
]}
,
{\"id\":180,\"created\":\"2018-08-10T14:07:36.450113+10:00\",\"modified\":\"2021-04-15T17:06:43.113957+10:00\",\"uuid\":\"3fc2962c-9c50-11e8-92a9-0273a7ea5052\",\"name\":\"Recipient\226\128\148blindness indicator, code A\",\"definition\":\"<p>An indicator of whether a recipient is&nbsp;blind, as represented by a code.</p>\",\"stewardship_organisation\":\"e4414942db3711e995fe62bb09eaf366\",\"workgroup\":6,\"version\":\"\",\"references\":\"\",\"origin_URI\":\"http://meteor.aihw.gov.au/content/index.phtml/itemId/639240\",\"origin\":\"\",\"comments\":\"\",\"dataElementConcept\":\"3fb9105c-9c50-11e8-92a9-0273a7ea5052\",\"valueDomain\":\"3fb0e5f8-9c50-11e8-92a9-0273a7ea5052\",\"metadatareferencelink_set\":[],\"slots\":[
{\"id\":28,\"name\":\"Short name\",\"value\":\"Blindness indicator\",\"order\":0,\"permission\":0}
],\"customvalue_set\":[
{\"id\":166,\"name\":\"Submitting Organisation\",\"field\":3,\"content\":\"<p>Australian Government Department of Social Services</p>\"}
],\"org_records\":[],\"identifiers\":[
{\"id\":\"00782a5e-731d-11ea-826c-6660846ba4fa\",\"namespace\":2,\"identifier\":\"639240\",\"version\":\"1\",\"order\":0}
]}
,
{\"id\":1747,\"created\":\"2019-10-01T10:44:44.427412+10:00\",\"modified\":\"2020-11-24T20:24:36.376568+11:00\",\"uuid\":\"a951e7aa-e3e4-11e9-9751-ee73887d3f77\",\"name\":\"Client: Physical address, Australian postcode\",\"definition\":\"<p>The residential address postcode for a given client, represented by a code.</p>\",\"stewardship_organisation\":\"e4414942db3711e995fe62bb09eaf366\",\"workgroup\":7,\"version\":\"\",\"references\":\"\",\"origin_URI\":\"\",\"origin\":\"\",\"comments\":\"\",\"dataElementConcept\":\"7c8a35a8-9d38-11e9-a451-ce6aaf42c97d\",\"valueDomain\":\"f03b655e-0f15-11ea-b552-5aa14367f5f6\",\"metadatareferencelink_set\":[],\"slots\":[],\"customvalue_set\":[],\"org_records\":[],\"identifiers\":[]}
,
{\"id\":1715,\"created\":\"2019-09-30T11:31:49.383854+10:00\",\"modified\":\"2020-11-24T20:13:48.510172+11:00\",\"uuid\":\"12b6460a-e322-11e9-9af0-ba24d5befecc\",\"name\":\"Client: Highest level of education or qualification, Label\",\"definition\":\"<p>The highest level of education or qualification achieved by a given client, represented by a label.</p>\",\"stewardship_organisation\":\"e4414942db3711e995fe62bb09eaf366\",\"workgroup\":7,\"version\":\"0.1\",\"references\":\"\",\"origin_URI\":\"\",\"origin\":\"\",\"comments\":\"\",\"dataElementConcept\":\"4484bede-e320-11e9-8b8d-ba24d5befecc\",\"valueDomain\":\"266f0f02-e321-11e9-a6a0-ba24d5befecc\",\"metadatareferencelink_set\":[],\"slots\":[],\"customvalue_set\":[],\"org_records\":[],\"identifiers\":[]}
,
{\"id\":240,\"created\":\"2018-08-10T14:09:27.834673+10:00\",\"modified\":\"2020-11-24T19:51:20.239448+11:00\",\"uuid\":\"3fd3d4dc-9c50-11e8-92a9-0273a7ea5052\",\"name\":\"Recipient\226\128\148impairment rating for fifth medical condition, code N[N]\",\"definition\":\"<p>The&nbsp;impairment rating for a recipient&#39;s&nbsp;fifth medical condition, as represented by a code.</p>\",\"stewardship_organisation\":\"e4414942db3711e995fe62bb09eaf366\",\"workgroup\":6,\"version\":\"\",\"references\":\"\",\"origin_URI\":\"http://meteor.aihw.gov.au/content/index.phtml/itemId/674428\",\"origin\":\"\",\"comments\":\"\",\"dataElementConcept\":\"3fc03382-9c50-11e8-92a9-0273a7ea5052\",\"valueDomain\":\"3fb5a2d2-9c50-11e8-92a9-0273a7ea5052\",\"metadatareferencelink_set\":[],\"slots\":[
{\"id\":116,\"name\":\"Short name\",\"value\":\"Impairment rating for fifth medical condition\",\"order\":0,\"permission\":0}
],\"customvalue_set\":[
{\"id\":59,\"name\":\"Submitting Organisation\",\"field\":3,\"content\":\"<p>Australian Government Department of Social Services</p>\"}
],\"org_records\":[],\"identifiers\":[
{\"id\":\"008f8fa0-731d-11ea-826c-6660846ba4fa\",\"namespace\":2,\"identifier\":\"674428\",\"version\":\"1\",\"order\":0}
]}
,
{\"id\":259,\"created\":\"2018-08-23T16:09:20.467866+10:00\",\"modified\":\"2021-04-15T17:53:52.618434+10:00\",\"uuid\":\"130ecff6-a69b-11e8-9b82-5aa4d64b01ca\",\"name\":\"Client: Ancestral cultural and ethnic group, ASCCEG 2016 code\",\"definition\":\"<p>The ancestral, cultural, and/or ethnic origin identified by a given client, represented by a code.</p>\",\"stewardship_organisation\":\"e4414942db3711e995fe62bb09eaf366\",\"workgroup\":7,\"version\":\"1.0\",\"references\":\"<p>&nbsp;</p>\\r\\n\\r\\n<p>&nbsp;</p>\",\"origin_URI\":\"\",\"origin\":\"\",\"comments\":\"\",\"dataElementConcept\":\"12cd6ae8-a69b-11e8-9b82-5aa4d64b01ca\",\"valueDomain\":\"12d2f77e-a69b-11e8-9b82-5aa4d64b01ca\",\"metadatareferencelink_set\":[],\"slots\":[],\"customvalue_set\":[],\"org_records\":[],\"identifiers\":[]}
,
{\"id\":1753,\"created\":\"2019-10-02T12:15:12.230795+10:00\",\"modified\":\"2020-11-24T20:13:48.659279+11:00\",\"uuid\":\"76f4b7e8-e4ba-11e9-9f1a-129a57c22235\",\"name\":\"Client: Employment status, Label\",\"definition\":\"<p>The employment status of a given client, whether employed or another role, represented by a label.</p>\",\"stewardship_organisation\":\"e4414942db3711e995fe62bb09eaf366\",\"workgroup\":7,\"version\":\"0.1\",\"references\":\"\",\"origin_URI\":\"\",\"origin\":\"\",\"comments\":\"\",\"dataElementConcept\":\"72a90bd6-e414-11e9-9751-ee73887d3f77\",\"valueDomain\":\"0c1dd026-e415-11e9-8104-ee73887d3f77\",\"metadatareferencelink_set\":[],\"slots\":[],\"customvalue_set\":[],\"org_records\":[],\"identifiers\":[]}
,
{\"id\":269,\"created\":\"2018-08-28T16:10:08.897854+10:00\",\"modified\":\"2020-11-24T20:13:48.766570+11:00\",\"uuid\":\"03fd64cc-aa89-11e8-add6-de5ac3c56dc3\",\"name\":\"Service provider: Preferred name, Text\",\"definition\":\"<p>The name identified by a given service provider for themselves, represented by an alphanumeric string.</p>\",\"stewardship_organisation\":\"e4414942db3711e995fe62bb09eaf366\",\"workgroup\":7,\"version\":\"0.1\",\"references\":\"\",\"origin_URI\":\"\",\"origin\":\"\",\"comments\":\"\",\"dataElementConcept\":\"0362b4e0-aa89-11e8-add6-de5ac3c56dc3\",\"valueDomain\":\"03639d24-aa89-11e8-add6-de5ac3c56dc3\",\"metadatareferencelink_set\":[],\"slots\":[],\"customvalue_set\":[],\"org_records\":[],\"identifiers\":[]}
,
{\"id\":1600,\"created\":\"2019-08-15T12:04:06.306862+10:00\",\"modified\":\"2020-11-24T19:51:30.298042+11:00\",\"uuid\":\"f634c76c-bf00-11e9-bea0-b26820ef2b9e\",\"name\":\"Client: Migration visa type, Label\",\"definition\":\"<p>The migration visa category granted by Australia to a given client, represented by a label.</p>\",\"stewardship_organisation\":\"e4414942db3711e995fe62bb09eaf366\",\"workgroup\":7,\"version\":\"0.1\",\"references\":\"\",\"origin_URI\":\"\",\"origin\":\"\",\"comments\":\"\",\"dataElementConcept\":\"1cc1ec86-beff-11e9-995c-b26820ef2b9e\",\"valueDomain\":\"b48472a4-bf00-11e9-995c-b26820ef2b9e\",\"metadatareferencelink_set\":[],\"slots\":[],\"customvalue_set\":[],\"org_records\":[],\"identifiers\":[]}
,
{\"id\":1529,\"created\":\"2019-08-05T10:26:03.606726+10:00\",\"modified\":\"2020-11-24T20:24:36.573429+11:00\",\"uuid\":\"9bb67772-b717-11e9-b3aa-d243d8711d7f\",\"name\":\"Client: Household composition, Label\",\"definition\":\"<p>The household composition for a given client, represented by a label.</p>\",\"stewardship_organisation\":\"e4414942db3711e995fe62bb09eaf366\",\"workgroup\":7,\"version\":\"\",\"references\":\"\",\"origin_URI\":\"\",\"origin\":\"\",\"comments\":\"\",\"dataElementConcept\":\"8394b520-b715-11e9-b3f9-f24cba10b26d\",\"valueDomain\":\"2214f0c4-b717-11e9-9560-d243d8711d7f\",\"metadatareferencelink_set\":[],\"slots\":[],\"customvalue_set\":[],\"org_records\":[],\"identifiers\":[]}
,
{\"id\":1672,\"created\":\"2019-09-04T09:40:15.238254+10:00\",\"modified\":\"2020-11-24T19:51:32.926170+11:00\",\"uuid\":\"2df33a6e-cea4-11e9-beff-7a47d262b9f3\",\"name\":\"Client outcome assessment: Created date, DDMMYYYY\",\"definition\":\"<p>The date a given client outcome assessment was entered into a system, represented by DDMMYYYY.</p>\",\"stewardship_organisation\":\"e4414942db3711e995fe62bb09eaf366\",\"workgroup\":7,\"version\":\"0.1\",\"references\":\"\",\"origin_URI\":\"\",\"origin\":\"\",\"comments\":\"\",\"dataElementConcept\":\"e97eb14c-cea3-11e9-beff-7a47d262b9f3\",\"valueDomain\":\"84c3e384-d32d-11e8-a0cd-3e2e0c23ee2c\",\"metadatareferencelink_set\":[],\"slots\":[],\"customvalue_set\":[],\"org_records\":[],\"identifiers\":[]}
,
{\"id\":1411,\"created\":\"2019-06-05T10:24:19.439131+10:00\",\"modified\":\"2021-04-15T17:53:54.419626+10:00\",\"uuid\":\"426d03e4-8728-11e9-b7ea-a6c3aeb4942b\",\"name\":\"Data Exchange: Client disability identifier, ID number\",\"definition\":\"<p>A system-generated identifier for a unique client disability record in the Data Exchange, represented by a number.</p>\",\"stewardship_organisation\":\"e4414942db3711e995fe62bb09eaf366\",\"workgroup\":7,\"version\":\"0.1\",\"references\":\"\",\"origin_URI\":\"\",\"origin\":\"\",\"comments\":\"<p>A client may identify as experiencing multiple separate disabilities belonging to different disability groups. Accordingly, a client may possess multiple unique client disability identifiers relating to them.</p>\",\"dataElementConcept\":\"e7d427f8-872e-11e9-82f7-a6c3aeb4942b\",\"valueDomain\":\"9ae0fff0-eb12-11e9-8e66-4a3e5474f21d\",\"metadatareferencelink_set\":[],\"slots\":[],\"customvalue_set\":[],\"org_records\":[],\"identifiers\":[]}
,
{\"id\":1757,\"created\":\"2019-10-02T14:33:26.048303+10:00\",\"modified\":\"2020-11-24T20:24:36.177873+11:00\",\"uuid\":\"c674d79a-e4cd-11e9-9f1a-129a57c22235\",\"name\":\"Client: Is a carer, Flag\",\"definition\":\"<p>Whether a given client is a carer in a carer relationship, represented by a flag.</p>\",\"stewardship_organisation\":\"e4414942db3711e995fe62bb09eaf366\",\"workgroup\":7,\"version\":\"0.1\",\"references\":\"\",\"origin_URI\":\"\",\"origin\":\"\",\"comments\":\"\",\"dataElementConcept\":\"15cf4556-e4cd-11e9-9f1a-129a57c22235\",\"valueDomain\":\"78d5497a-e4cd-11e9-9f1a-129a57c22235\",\"metadatareferencelink_set\":[],\"slots\":[],\"customvalue_set\":[],\"org_records\":[],\"identifiers\":[]}
,
{\"id\":350,\"created\":\"2018-10-11T15:47:51.380457+11:00\",\"modified\":\"2020-11-24T19:51:22.231306+11:00\",\"uuid\":\"cf2d0a90-cd10-11e8-a594-f6994a40d2c6\",\"name\":\"Client: Disability status, Category label\",\"definition\":\"<p>The experience of disability, impairment or condition identified by a given client, represented by a label.</p>\",\"stewardship_organisation\":\"e4414942db3711e995fe62bb09eaf366\",\"workgroup\":7,\"version\":\"0.1\",\"references\":\"\",\"origin_URI\":\"\",\"origin\":\"\",\"comments\":\"<p>Note: A client can only have a &#39;Not/stated/Inadequately described&#39; value for this data item if they have reported experiencing a disability. A client recorded as &#39;No disability&#39; cannot be recorded as &#39;Not stated/Inadequately described&#39;.&nbsp; This reflects how data is uploaded into the Data Exchange system.</p>\\r\\n\\r\\n<ul>\\r\\n\\t<li>If the service provider is using the Data Exchange web portal as a direct user interface to record client details, they can only be prompted to select a disability category (including &#39;Not stated/Inadequately described&#39;) <em>after</em> they have selected a check box confirming that the client does have a disability.</li>\\r\\n\\t<li>For system-to-system and bulk-upload-XML uploads, the Data Exchange system will prevent any records from updating if a service provider tries to record &#39;Not stated/Inadequately&#39; when a client does not report experiencing a disability at the same time.&nbsp;</li>\\r\\n</ul>\\r\\n\\r\\n<p>See <a href=\\\"https://dex.dss.gov.au/sites/default/files/documents/2019-11/d19-891380v6-be-published-data.pdf#page=19\\\">page 19 of the Data Exchange Protocols</a> for further detail.&nbsp;</p>\",\"dataElementConcept\":\"428f95cc-c1fc-11e8-ae08-4e1f39c24453\",\"valueDomain\":\"80340420-cd10-11e8-8bb3-f6994a40d2c6\",\"metadatareferencelink_set\":[],\"slots\":[
{\"id\":158,\"name\":\"Synonym\",\"value\":\"Disability Status\",\"order\":0,\"permission\":0}
],\"customvalue_set\":[],\"org_records\":[],\"identifiers\":[]}
]}
"